{
  "uid" : "98d3104e051c652961429bf95fa0b5d6",
  "name" : "suites",
  "children" : [ {
    "name" : "AppComponent",
    "children" : [ {
      "name" : "should have as title 'ddesign'",
      "uid" : "5778c1c5735849da",
      "parentUid" : "02b5eb6ae8367b5d0dc9d15f0f067432",
      "status" : "passed",
      "time" : {
        "start" : 1626859635339,
        "stop" : 1626859635402,
        "duration" : 63
      },
      "flaky" : false,
      "newFailed" : false,
      "parameters" : [ ]
    }, {
      "name" : "should render title",
      "uid" : "572c170222621604",
      "parentUid" : "02b5eb6ae8367b5d0dc9d15f0f067432",
      "status" : "passed",
      "time" : {
        "start" : 1626859635396,
        "stop" : 1626859635403,
        "duration" : 7
      },
      "flaky" : false,
      "newFailed" : false,
      "parameters" : [ ]
    }, {
      "name" : "should create the app",
      "uid" : "ef12e0db7875668",
      "parentUid" : "02b5eb6ae8367b5d0dc9d15f0f067432",
      "status" : "passed",
      "time" : {
        "start" : 1626859635399,
        "stop" : 1626859635403,
        "duration" : 4
      },
      "flaky" : false,
      "newFailed" : false,
      "parameters" : [ ]
    } ],
    "uid" : "02b5eb6ae8367b5d0dc9d15f0f067432"
  } ]
}