{
  "uid" : "b1a8273437954620fa374b796ffaacdd",
  "name" : "behaviors",
  "children" : [ {
    "name" : "should have as title 'ddesign'",
    "uid" : "5778c1c5735849da",
    "parentUid" : "b1a8273437954620fa374b796ffaacdd",
    "status" : "passed",
    "time" : {
      "start" : 1626859635339,
      "stop" : 1626859635402,
      "duration" : 63
    },
    "flaky" : false,
    "newFailed" : false,
    "parameters" : [ ]
  }, {
    "name" : "should render title",
    "uid" : "572c170222621604",
    "parentUid" : "b1a8273437954620fa374b796ffaacdd",
    "status" : "passed",
    "time" : {
      "start" : 1626859635396,
      "stop" : 1626859635403,
      "duration" : 7
    },
    "flaky" : false,
    "newFailed" : false,
    "parameters" : [ ]
  }, {
    "name" : "should create the app",
    "uid" : "ef12e0db7875668",
    "parentUid" : "b1a8273437954620fa374b796ffaacdd",
    "status" : "passed",
    "time" : {
      "start" : 1626859635399,
      "stop" : 1626859635403,
      "duration" : 4
    },
    "flaky" : false,
    "newFailed" : false,
    "parameters" : [ ]
  } ]
}